{
  "tasksRunnerOptions": {
    "default": {
      "runner": "nx-cloud",
      "options": {
        "cacheableOperations": ["build", "lint", "test", "e2e"],
        "accessToken": "ZjQ0ZWU5NTAtN2JiMS00MmFlLWI5NDctYmVhYTA1ODJlNzNlfHJlYWQtd3JpdGU="
      }
    }
  },
  "extends": "nx/presets/npm.json",
  "$schema": "./node_modules/nx/schemas/nx-schema.json",
  "affected": {
    "defaultBase": "master"
  },
  "generators": {
    "@nx/react": {
      "application": {
        "style": "css",
        "linter": "eslint",
        "bundler": "webpack",
        "babel": true
      },
      "component": {
        "style": "css"
      },
      "library": {
        "style": "css",
        "linter": "eslint"
      }
    }
  },
  "targetDefaults": {
    "lint": {
      "inputs": [
        "default",
        "{workspaceRoot}/.eslintrc.json",
        "{workspaceRoot}/.eslintignore",
        "{workspaceRoot}/eslint.config.js"
      ]
    },
    "test": {
      "inputs": ["default", "^default", "{workspaceRoot}/jest.preset.js"]
    }
  }
}
